{
  "quote_id": 183,
  "ins_addr1": "~ins_addr1~",
  "ins_addr2": "~ins_addr2~",
  "ins_age": "1",
  "ins_birthdate": "1995-02-12",
  "ins_factor": "1",
  "ins_marital": "M",
  "ins_name": " yyy vvv",
  "ins_pay_grade": "E8",
  "ins_rank": "E8",
  "ins_tel_home": "~ins_tel_home~",
  "ins_tel_office": "~ins_tel_office~",
  "other_final_note_dt": "2020-02-11",
  "pol_data_date": "2021-02-12",
  "pol_date": "2020-02-10",
  "pol_prem_rcpt_dt": "2020-02-10",
  "pol_term_from_dt": "2020-02-06",
  "pol_term_month": "12",
  "pol_term_orig_eff_dt": "2020-02-06",
  "pol_term_to_dt": "2021-02-06",
  "policy_number": "PA000434",
  "prm_bi_limit": "10",
  "prm_bi_premium": 13,
  "prm_coll_ded": "50000",
  "prm_coll_limit": "10",
  "prm_coll_premium": 6076,
  "prm_comp_ded": "30000",
  "prm_comp_limit": "10",
  "prm_comp_premium": 1284,
  "prm_gross_premium": 11026,
  "prm_loss_limit": "3600",
  "prm_loss_premium": 728,
  "prm_medpay_limit": "90000",
  "prm_medpay_premium": 2730,
  "prm_net_premium": 11026,
  "prm_pd_limit": "10",
  "prm_pd_premium": 195,
  "prm_total_premium": 11026,
  "veh_car_typecd": "PrivatePassengerSedanLarge",
  "veh_lic_plate2": "Okinawa",
  "veh_next_ins_dt": "2020-04-05"
}
